Aim_Smooth=6.5
FOV_X=60
FOV_Y=80
enemibones=5
Aimbot_Recoil=60
Aim_Key1=10
Aim_Key2=10
Legendary=1
Allitems=1
teamatesC=0
Epic=1
Rare=1
Heirloom=1
Common=1
distglow=40000
Recoil=1
Recoil_Level=50
hitboxX=1.5
Aim_Key_Triggerbot=8
skinnum=12
skin=1
juba1=0x16394a0
juba2=0x1d0fe58
juba3=0x020c1138
juba4=0xbffec80 
juba5=0x4634
juba6=0x38
juba7=0x044c
juba8=0x043c
juba9=0x0170
juba10=0x174
juba11=0x0589
juba12=0x0140
juba13=0x1a78
juba14=0x1c31 
juba15=0x0578
juba16=0x0798
juba17=0x2740
juba18=0x14c
juba19=0xee0
juba20=0x24b0
juba21=0x1f48
juba22=0x2598 
juba23=0x2580
juba24=0x33dc
juba25=0x2d60
juba26=0x11a210
juba27=0x786f390
juba28=0x1a1c 
juba29=0x1F48
juba30=0x1F50
juba31=0x1F50
juba32=0x07871c50
juba33=0x2c0
juba34=0x0580
juba35=0x262
juba36=0x2dc
juba37=0x3c8 
juba38=0x3d0
juba39=0x4628
juba40=0x16b8
juba41=0xc4cb5c0
juba42=0x1a7c
juba43=0x1a80
juba44=0x22ac
juba45=0x0e54
#This is your saved auto generated config file. Don't delete until saving new settings, if you want to use as a reference.
